Fungicide Profitability for Soybean Rust Management in Brazil: A Stochastic Simulation Approach
…
conversion to US dollar

sbr_price = soybean %>% 
  filter(year>=2015) %>% 
  mutate(price = (price/60)/4,
         national_price = (national_price/60)/4)
sbr_price

## # A tibble: 290 x 5
##    state month  year price national_price
##    <chr> <dbl> <dbl> <dbl>          <dbl>
##  1 GO       10  2019 0.326          0.321
##  2 GO        9  2019 0.322          0.316
##  3 GO        8  2019 0.304          0.298
##  4 GO        7  2019 0.284          0.285
##  5 GO        6  2019 0.291          0.292
##  6 GO        5  2019 0.280          0.276
##  7 GO        4  2019 0.282          0.282
##  8 GO        3  2019 0.283          0.288
##  9 GO        2  2019 0.278          0.282
## 10 GO        1  2019 0.301          0.289
## # ... with 280 more rows
…
ggsave("figs/yield_gain2.png", dpi = 600, height = 6, width =8)

big_one_df %>%
  mutate(sev_class = case_when(sn > median(sn) ~ "High severity",
                                 sn <= median(sn) ~ "Low severity")) %>%
  group_by(lambda, sev_class ) %>% 
  summarise(yield_gain_median = median(yield_gain),
            # yield_gain_mean = mean(yield_gain),
            up_95 = quantile(yield_gain, 0.975),
            low_95 = quantile(yield_gain, 0.025),
            up_75 = quantile(yield_gain, 0.75),
            low_75 = quantile(yield_gain, 0.25)) %>% 
  bind_rows(overal_yg)

## # A tibble: 63 x 8
## # Groups:   lambda [21]
##    lambda sev_class yield_gain_medi~ up_95 low_95 up_75 low_75
##     <dbl> <chr>                <dbl> <dbl>  <dbl> <dbl>  <dbl>
##  1   0    High sev~              0     0     0      0      0  
##  2   0    Low seve~              0     0     0      0      0  
##  3   0.05 High sev~             58.5 145.   13.7   84.6   38.1
##  4   0.05 Low seve~             26.4  90.7   3.08  43.3   14.5
##  5   0.1  High sev~            118.  293.   27.7  169.    76.4
##  6   0.1  Low seve~             53.1 181.    6.32  87.2   29.1
##  7   0.15 High sev~            175.  437.   41.2  254.   114. 
##  8   0.15 Low seve~             79.0 272.    9.34 130.    43.4
##  9   0.2  High sev~            234.  580.   54.9  338.   152. 
## 10   0.2  Low seve~            105.  365.   12.3  174.    57.9
## # ... with 53 more rows, and 1 more variable: yield_gain_mean <dbl>
…
## Warning: Removed 1 rows containing missing values (geom_errorbarh).

 big_one_df %>%
  mutate(sev_class = case_when(sn > median(sn) ~ "High severity",
                                 sn <= median(sn) ~ "Low severity")) %>% 
  group_by(lambda,sev_class) %>% 
  summarise(yield_gain_median = median((yield_gain_perc),na.rm = T),
            yield_gain_mean = mean((yield_gain_perc),na.rm = T),
            up_95 = quantile((yield_gain_perc), 0.975,na.rm = T),
            low_95 = quantile((yield_gain_perc), 0.025,na.rm = T),
            up_75 = quantile((yield_gain_perc), 0.75,na.rm = T),
            low_75 = quantile((yield_gain_perc), 0.25,na.rm = T)) %>% 
  bind_rows(overal_percet)

## # A tibble: 63 x 8
## # Groups:   lambda [21]
##    lambda sev_class yield_gain_medi~ yield_gain_mean  up_95 low_95 up_75
##     <dbl> <chr>                <dbl>           <dbl>  <dbl>  <dbl> <dbl>
##  1   0    High sev~             0               0      0     0      0   
##  2   0    Low seve~             0               0      0     0      0   
##  3   0.05 High sev~             3.39           17.8   57.6   0.546  7.02
##  4   0.05 Low seve~             1.13            2.66   9.90  0.112  2.19
##  5   0.1  High sev~             6.83           30.3  115.    1.09  14.1 
##  6   0.1  Low seve~             2.26            5.79  20.2   0.229  4.41
##  7   0.15 High sev~            10.2           145.   167.    1.63  21.2 
##  8   0.15 Low seve~             3.38            8.20  30.4   0.339  6.57
##  9   0.2  High sev~            13.5           224.   225.    2.18  28.1 
## 10   0.2  Low seve~             4.52           12.1   40.0   0.452  8.79
## # ... with 53 more rows, and 1 more variable: low_75 <dbl>
